{
  "roots" : [
		 {
			"dbnr": 92,
			"grnr": 5,
			"identifiers": ["guid"],
			"importonce" : false,
			"headfields": ["id", "guid", "such", "name", "verwaz", "nurkopf", "fmeldleer", "srcheader", "conditions", "srcinfosys", "datenaufb", "dstheader", "faclassname", "famethod", "reftoken" , "dn", "grtxt", "namebspr"],
			"tablefields": ["zid", "nastruktur", "nafeld" , "ediptag", "editag","nachfolger", "default", "refid", "srcfield", "dstfield", "tfaclassname", "method"]
			"rowimportmode" : "clearBeforeImport"
			"criteria" : "such=AXRECHNUNG!AXRECHNUNG"
		  }
		  
  ],
  "dependents" : [
		{
			"dbnr": 107,
			"grnr": 1,
			"standard" : true,
            "headfields": ["id", "classname", "nummer"],
            "identifiers": ["classname"],
            "tablefields": []
		 }
    ]
}
	